module gitlab.com/bate-modules/gorm

go 1.14

require (
	github.com/fsnotify/fsnotify v1.4.9 // indirect
	github.com/inconshreveable/log15 v0.0.0-20200109203555-b30bc20e4fd1 // indirect
	github.com/mattn/go-colorable v0.1.7 // indirect
	github.com/myesui/uuid v1.0.0 // indirect
	github.com/revel/config v1.0.0 // indirect
	github.com/revel/log15 v2.11.20+incompatible // indirect
	github.com/revel/pathtree v0.0.0-20140121041023-41257a1839e9 // indirect
	github.com/revel/revel v1.0.0
	github.com/stretchr/testify v1.6.1 // indirect
	github.com/twinj/uuid v1.0.0 // indirect
	github.com/xeonx/timeago v1.0.0-rc4 // indirect
	gopkg.in/natefinch/lumberjack.v2 v2.0.0 // indirect
	gopkg.in/stack.v0 v0.0.0-20141108040640-9b43fcefddd0 // indirect
	gopkg.in/stretchr/testify.v1 v1.2.2 // indirect
	gopkg.in/yaml.v2 v2.3.0 // indirect
	gorm.io/driver/mysql v1.0.1
	gorm.io/driver/postgres v1.0.0
	gorm.io/gorm v1.20.0
)
